…
**Count asiles and find most ordered aisles**

``` r
instacart %>%
  count(aisle, name = "n_obs") %>% 
  arrange(desc(n_obs)) 
```

    ## # A tibble: 134 × 2
    ##    aisle                          n_obs
    ##    <chr>                          <int>
    ##  1 fresh vegetables              150609
    ##  2 fresh fruits                  150473
    ##  3 packaged vegetables fruits     78493
    ##  4 yogurt                         55240
    ##  5 packaged cheese                41699
    ##  6 water seltzer sparkling water  36617
    ##  7 milk                           32644
    ##  8 chips pretzels                 31269
    ##  9 soy lactosefree                26240
    ## 10 bread                          23635
    ## # … with 124 more rows
…
**Traditional analyses of accelerometer data**

``` r
total_activity = 
  accel_df %>% 
  mutate(total_activity = sum(accel_df[4:1443])) %>% 
  subset(select = c("week","day_id","day","total_activity" ))

total_activity
```

    ## # A tibble: 35 × 4
    ##     week day_id day       total_activity
    ##    <dbl>  <dbl> <fct>              <dbl>
    ##  1     1      1 Friday         13459021.
    ##  2     1      2 Monday         13459021.
    ##  3     1      3 Saturday       13459021.
    ##  4     1      4 Sunday         13459021.
    ##  5     1      5 Thursday       13459021.
    ##  6     1      6 Tuesday        13459021.
    ##  7     1      7 Wednesday      13459021.
    ##  8     2      8 Friday         13459021.
    ##  9     2      9 Monday         13459021.
    ## 10     2     10 Saturday       13459021.
    ## # … with 25 more rows
…
